…
# ... and make sure that "All Items" appears first in the dataframe
# Additionally, we clean the titles
cpi_change <- cpi_change %>% 
  mutate(index = symbol == "CPIAUCSL") %>%
  mutate(title = str_remove_all(title, "Consumer Price Index for All Urban Consumers: ")) %>%
  mutate(title = str_remove_all(title, " in U.S. City Average"))

# Next, we order the components within each month based on their impact on the annual CPI change for that month and create a new dataframe
cpi_ordered <- cpi_change %>%
    group_by(date) %>%
  arrange(desc(index), date, desc(year_change))

cpi_ordered

## # A tibble: 12,165 x 11
## # Groups:   date [249]
##    symbol   date       price title     vintage_date units freq  seas_adj updated
##    <chr>    <date>     <dbl> <chr>     <chr>        <chr> <chr> <chr>    <chr>  
##  1 CPIAUCSL 2001-01-01  176. All Items Current      Inde~ M     SA       2021-1~
##  2 CPIAUCSL 2001-02-01  176  All Items Current      Inde~ M     SA       2021-1~
##  3 CPIAUCSL 2001-03-01  176. All Items Current      Inde~ M     SA       2021-1~
##  4 CPIAUCSL 2001-04-01  176. All Items Current      Inde~ M     SA       2021-1~
##  5 CPIAUCSL 2001-05-01  177. All Items Current      Inde~ M     SA       2021-1~
##  6 CPIAUCSL 2001-06-01  178. All Items Current      Inde~ M     SA       2021-1~
##  7 CPIAUCSL 2001-07-01  177. All Items Current      Inde~ M     SA       2021-1~
##  8 CPIAUCSL 2001-08-01  177. All Items Current      Inde~ M     SA       2021-1~
##  9 CPIAUCSL 2001-09-01  178. All Items Current      Inde~ M     SA       2021-1~
## 10 CPIAUCSL 2001-10-01  178. All Items Current      Inde~ M     SA       2021-1~
## # ... with 12,155 more rows, and 2 more variables: year_change <dbl>,
## #   index <lgl>
…
